%YAML 1.1
%TAG !u! tag:unity3d.com,2011:
--- !u!1 &7260642750710064954
GameObject:
  m_ObjectHideFlags: 0
  m_CorrespondingSourceObject: {fileID: 0}
  m_PrefabInstance: {fileID: 0}
  m_PrefabAsset: {fileID: 0}
  serializedVersion: 6
  m_Component:
  - component: {fileID: 4271515032075380551}
  - component: {fileID: 4174179129515580697}
  - component: {fileID: 8250884747518234458}
  m_Layer: 0
  m_Name: BulletDotDisplay
  m_TagString: Untagged
  m_Icon: {fileID: 0}
  m_NavMeshLayer: 0
  m_StaticEditorFlags: 0
  m_IsActive: 1
--- !u!4 &4271515032075380551
Transform:
  m_ObjectHideFlags: 0
  m_CorrespondingSourceObject: {fileID: 0}
  m_PrefabInstance: {fileID: 0}
  m_PrefabAsset: {fileID: 0}
  m_GameObject: {fileID: 7260642750710064954}
  m_LocalRotation: {x: 0, y: 0, z: 0, w: 1}
  m_LocalPosition: {x: 0, y: 0, z: 0}
  m_LocalScale: {x: 1, y: 1, z: 1}
  m_Children: []
  m_Father: {fileID: 0}
  m_RootOrder: 0
  m_LocalEulerAnglesHint: {x: 0, y: 0, z: 0}
--- !u!212 &4174179129515580697
SpriteRenderer:
  m_ObjectHideFlags: 0
  m_CorrespondingSourceObject: {fileID: 0}
  m_PrefabInstance: {fileID: 0}
  m_PrefabAsset: {fileID: 0}
  m_GameObject: {fileID: 7260642750710064954}
  m_Enabled: 1
  m_CastShadows: 0
  m_ReceiveShadows: 0
  m_DynamicOccludee: 1
  m_MotionVectors: 1
  m_LightProbeUsage: 1
  m_ReflectionProbeUsage: 1
  m_RayTracingMode: 0
  m_RayTraceProcedural: 0
  m_RenderingLayerMask: 1
  m_RendererPriority: 0
  m_Materials:
  - {fileID: 10754, guid: 0000000000000000f000000000000000, type: 0}
  m_StaticBatchInfo:
    firstSubMesh: 0
    subMeshCount: 0
  m_StaticBatchRoot: {fileID: 0}
  m_ProbeAnchor: {fileID: 0}
  m_LightProbeVolumeOverride: {fileID: 0}
  m_ScaleInLightmap: 1
  m_ReceiveGI: 1
  m_PreserveUVs: 0
  m_IgnoreNormalsForChartDetection: 0
  m_ImportantGI: 0
  m_StitchLightmapSeams: 1
  m_SelectedEditorRenderState: 0
  m_MinimumChartSize: 4
  m_AutoUVMaxDistance: 0.5
  m_AutoUVMaxAngle: 89
  m_LightmapParameters: {fileID: 0}
  m_SortingLayerID: -1563748265
  m_SortingLayer: 9
  m_SortingOrder: 0
  m_Sprite: {fileID: 6194044412289776060, guid: 61d2003718896294f878d264b6bc787f, type: 3}
  m_Color: {r: 1, g: 1, b: 1, a: 1}
  m_FlipX: 0
  m_FlipY: 0
  m_DrawMode: 0
  m_Size: {x: 0.25, y: 0.25}
  m_AdaptiveModeThreshold: 0.5
  m_SpriteTileMode: 0
  m_WasSpriteAssigned: 1
  m_MaskInteraction: 0
  m_SpriteSortPoint: 0
--- !u!114 &8250884747518234458
MonoBehaviour:
  m_ObjectHideFlags: 0
  m_CorrespondingSourceObject: {fileID: 0}
  m_PrefabInstance: {fileID: 0}
  m_PrefabAsset: {fileID: 0}
  m_GameObject: {fileID: 7260642750710064954}
  m_Enabled: 1
  m_EditorHideFlags: 0
  m_Script: {fileID: 11500000, guid: bb2614afdb04bfb44a0deb88846aff98, type: 3}
  m_Name: 
  m_EditorClassIdentifier: 
  sprites:
  - {fileID: -5172003115658401923, guid: 61d2003718896294f878d264b6bc787f, type: 3}
  - {fileID: 6194044412289776060, guid: 61d2003718896294f878d264b6bc787f, type: 3}
  - {fileID: -6186421575750975427, guid: 61d2003718896294f878d264b6bc787f, type: 3}
  - {fileID: 4192310755353214056, guid: 61d2003718896294f878d264b6bc787f, type: 3}
  - {fileID: -7039776748268681416, guid: 61d2003718896294f878d264b6bc787f, type: 3}
  - {fileID: 3839380649249680966, guid: 61d2003718896294f878d264b6bc787f, type: 3}
  - {fileID: -6059805445707085394, guid: 61d2003718896294f878d264b6bc787f, type: 3}
  - {fileID: -8156364639024153432, guid: 61d2003718896294f878d264b6bc787f, type: 3}
  - {fileID: 5992389078398640985, guid: 61d2003718896294f878d264b6bc787f, type: 3}
  - {fileID: -5815304341097570820, guid: 61d2003718896294f878d264b6bc787f, type: 3}
  - {fileID: -2271558871904547541, guid: 61d2003718896294f878d264b6bc787f, type: 3}
  - {fileID: -3093304213830103216, guid: 61d2003718896294f878d264b6bc787f, type: 3}
  - {fileID: -7535659779093070658, guid: 61d2003718896294f878d264b6bc787f, type: 3}
  - {fileID: 2416467816477896416, guid: 61d2003718896294f878d264b6bc787f, type: 3}
  - {fileID: 8500460061666938662, guid: 61d2003718896294f878d264b6bc787f, type: 3}
  - {fileID: -5991310869635023748, guid: 61d2003718896294f878d264b6bc787f, type: 3}
