%YAML 1.1
%TAG !u! tag:unity3d.com,2011:
--- !u!1 &5797541170352048347
GameObject:
  m_ObjectHideFlags: 0
  m_CorrespondingSourceObject: {fileID: 0}
  m_PrefabInstance: {fileID: 0}
  m_PrefabAsset: {fileID: 0}
  serializedVersion: 6
  m_Component:
  - component: {fileID: 5797541170352048346}
  - component: {fileID: 5797541170352048344}
  - component: {fileID: 5797541170352048345}
  m_Layer: 0
  m_Name: BulletSmallStarDisplay
  m_TagString: Untagged
  m_Icon: {fileID: 0}
  m_NavMeshLayer: 0
  m_StaticEditorFlags: 0
  m_IsActive: 1
--- !u!4 &5797541170352048346
Transform:
  m_ObjectHideFlags: 0
  m_CorrespondingSourceObject: {fileID: 0}
  m_PrefabInstance: {fileID: 0}
  m_PrefabAsset: {fileID: 0}
  m_GameObject: {fileID: 5797541170352048347}
  m_LocalRotation: {x: -0, y: -0, z: -0, w: 1}
  m_LocalPosition: {x: 0, y: 0, z: 0}
  m_LocalScale: {x: 1, y: 1, z: 1}
  m_Children: []
  m_Father: {fileID: 0}
  m_RootOrder: 0
  m_LocalEulerAnglesHint: {x: 0, y: 0, z: 0}
--- !u!212 &5797541170352048344
SpriteRenderer:
  m_ObjectHideFlags: 0
  m_CorrespondingSourceObject: {fileID: 0}
  m_PrefabInstance: {fileID: 0}
  m_PrefabAsset: {fileID: 0}
  m_GameObject: {fileID: 5797541170352048347}
  m_Enabled: 1
  m_CastShadows: 0
  m_ReceiveShadows: 0
  m_DynamicOccludee: 1
  m_MotionVectors: 1
  m_LightProbeUsage: 1
  m_ReflectionProbeUsage: 1
  m_RayTracingMode: 0
  m_RayTraceProcedural: 0
  m_RenderingLayerMask: 1
  m_RendererPriority: 0
  m_Materials:
  - {fileID: 10754, guid: 0000000000000000f000000000000000, type: 0}
  m_StaticBatchInfo:
    firstSubMesh: 0
    subMeshCount: 0
  m_StaticBatchRoot: {fileID: 0}
  m_ProbeAnchor: {fileID: 0}
  m_LightProbeVolumeOverride: {fileID: 0}
  m_ScaleInLightmap: 1
  m_ReceiveGI: 1
  m_PreserveUVs: 0
  m_IgnoreNormalsForChartDetection: 0
  m_ImportantGI: 0
  m_StitchLightmapSeams: 1
  m_SelectedEditorRenderState: 0
  m_MinimumChartSize: 4
  m_AutoUVMaxDistance: 0.5
  m_AutoUVMaxAngle: 89
  m_LightmapParameters: {fileID: 0}
  m_SortingLayerID: -1563748265
  m_SortingLayer: 2
  m_SortingOrder: 0
  m_Sprite: {fileID: -3591247372251492573, guid: daadf6708cab9714ab6e34f4ac94cf1c, type: 3}
  m_Color: {r: 1, g: 1, b: 1, a: 1}
  m_FlipX: 0
  m_FlipY: 0
  m_DrawMode: 0
  m_Size: {x: 0.16, y: 0.16}
  m_AdaptiveModeThreshold: 0.5
  m_SpriteTileMode: 0
  m_WasSpriteAssigned: 1
  m_MaskInteraction: 0
  m_SpriteSortPoint: 0
--- !u!114 &5797541170352048345
MonoBehaviour:
  m_ObjectHideFlags: 0
  m_CorrespondingSourceObject: {fileID: 0}
  m_PrefabInstance: {fileID: 0}
  m_PrefabAsset: {fileID: 0}
  m_GameObject: {fileID: 5797541170352048347}
  m_Enabled: 1
  m_EditorHideFlags: 0
  m_Script: {fileID: 11500000, guid: bb2614afdb04bfb44a0deb88846aff98, type: 3}
  m_Name: 
  m_EditorClassIdentifier: 
  sprites:
  - {fileID: -3591247372251492573, guid: daadf6708cab9714ab6e34f4ac94cf1c, type: 3}
  - {fileID: -6412238630463018359, guid: daadf6708cab9714ab6e34f4ac94cf1c, type: 3}
  - {fileID: -1451810119219321488, guid: daadf6708cab9714ab6e34f4ac94cf1c, type: 3}
  - {fileID: -1363801359758280024, guid: daadf6708cab9714ab6e34f4ac94cf1c, type: 3}
  - {fileID: 9220872551335502528, guid: daadf6708cab9714ab6e34f4ac94cf1c, type: 3}
  - {fileID: 416280696211518480, guid: daadf6708cab9714ab6e34f4ac94cf1c, type: 3}
  - {fileID: -9011438484469920689, guid: daadf6708cab9714ab6e34f4ac94cf1c, type: 3}
  - {fileID: 1472015140712160126, guid: daadf6708cab9714ab6e34f4ac94cf1c, type: 3}
  - {fileID: 8066287148322298333, guid: daadf6708cab9714ab6e34f4ac94cf1c, type: 3}
  - {fileID: -4284770598409408160, guid: daadf6708cab9714ab6e34f4ac94cf1c, type: 3}
  - {fileID: 741563595888904381, guid: daadf6708cab9714ab6e34f4ac94cf1c, type: 3}
  - {fileID: 4483216765434214335, guid: daadf6708cab9714ab6e34f4ac94cf1c, type: 3}
  - {fileID: -3535380384514520091, guid: daadf6708cab9714ab6e34f4ac94cf1c, type: 3}
  - {fileID: -1121113684502850690, guid: daadf6708cab9714ab6e34f4ac94cf1c, type: 3}
  - {fileID: -5298131075838067940, guid: daadf6708cab9714ab6e34f4ac94cf1c, type: 3}
  - {fileID: 4018537303792769017, guid: daadf6708cab9714ab6e34f4ac94cf1c, type: 3}
