%YAML 1.1
%TAG !u! tag:unity3d.com,2011:
--- !u!1 &1266091226391628857
GameObject:
  m_ObjectHideFlags: 0
  m_CorrespondingSourceObject: {fileID: 0}
  m_PrefabInstance: {fileID: 0}
  m_PrefabAsset: {fileID: 0}
  serializedVersion: 6
  m_Component:
  - component: {fileID: 2482516671678913520}
  - component: {fileID: 3750148259970184020}
  - component: {fileID: 8309578859096446983}
  m_Layer: 0
  m_Name: Bullet22
  m_TagString: Bullets
  m_Icon: {fileID: 0}
  m_NavMeshLayer: 0
  m_StaticEditorFlags: 0
  m_IsActive: 1
--- !u!4 &2482516671678913520
Transform:
  m_ObjectHideFlags: 0
  m_CorrespondingSourceObject: {fileID: 0}
  m_PrefabInstance: {fileID: 0}
  m_PrefabAsset: {fileID: 0}
  m_GameObject: {fileID: 1266091226391628857}
  m_LocalRotation: {x: 0, y: 0, z: 0, w: 1}
  m_LocalPosition: {x: 0, y: 0, z: 0}
  m_LocalScale: {x: 1, y: 1, z: 1}
  m_Children: []
  m_Father: {fileID: 0}
  m_RootOrder: 0
  m_LocalEulerAnglesHint: {x: 0, y: 0, z: 0}
--- !u!58 &3750148259970184020
CircleCollider2D:
  m_ObjectHideFlags: 0
  m_CorrespondingSourceObject: {fileID: 0}
  m_PrefabInstance: {fileID: 0}
  m_PrefabAsset: {fileID: 0}
  m_GameObject: {fileID: 1266091226391628857}
  m_Enabled: 0
  m_Density: 1
  m_Material: {fileID: 0}
  m_IsTrigger: 0
  m_UsedByEffector: 0
  m_UsedByComposite: 0
  m_Offset: {x: 0, y: 0}
  serializedVersion: 2
  m_Radius: 0.075
--- !u!114 &8309578859096446983
MonoBehaviour:
  m_ObjectHideFlags: 0
  m_CorrespondingSourceObject: {fileID: 0}
  m_PrefabInstance: {fileID: 0}
  m_PrefabAsset: {fileID: 0}
  m_GameObject: {fileID: 1266091226391628857}
  m_Enabled: 1
  m_EditorHideFlags: 0
  m_Script: {fileID: 11500000, guid: b698289b8a8b6554ea6f712bbae07f4f, type: 3}
  m_Name: 
  m_EditorClassIdentifier: 
  bulletDisplayPrefab: {fileID: 2282837515352143798, guid: a926faf8b9c687443b74874abaf3b910, type: 3}
  generationDisplayPrefab: {fileID: 2282837515352143798, guid: a926faf8b9c687443b74874abaf3b910, type: 3}
  shardPrefab: {fileID: 9040942443500990729, guid: 3964607ffd957be44b697022ccfc97bb, type: 3}
